\relax 
\providecommand\hyper@newdestlabel[2]{}
\providecommand\HyperFirstAtBeginDocument{\AtBeginDocument}
\HyperFirstAtBeginDocument{\ifx\hyper@anchor\@undefined
\global\let\oldcontentsline\contentsline
\gdef\contentsline#1#2#3#4{\oldcontentsline{#1}{#2}{#3}}
\global\let\oldnewlabel\newlabel
\gdef\newlabel#1#2{\newlabelxx{#1}#2}
\gdef\newlabelxx#1#2#3#4#5#6{\oldnewlabel{#1}{{#2}{#3}}}
\AtEndDocument{\ifx\hyper@anchor\@undefined
\let\contentsline\oldcontentsline
\let\newlabel\oldnewlabel
\fi}
\fi}
\global\let\hyper@last\relax 
\gdef\HyperFirstAtBeginDocument#1{#1}
\providecommand*\HyPL@Entry[1]{}
\HyPL@Entry{0<</S/D>>}
\babel@aux{french}{}
\babel@aux{french}{}
\@writefile{toc}{\contentsline {section}{\numberline {0.1}II}{48}{section.0.1}}
\newlabel{ii}{{0.1}{48}{II}{section.0.1}{}}
\@writefile{toc}{\contentsline {section}{\numberline {0.2}III}{87}{section.0.2}}
\newlabel{iii}{{0.2}{87}{III}{section.0.2}{}}
\@writefile{toc}{\contentsline {section}{\numberline {0.3}IV}{120}{section.0.3}}
\newlabel{iv}{{0.3}{120}{IV}{section.0.3}{}}
\@writefile{toc}{\contentsline {section}{\numberline {0.4}V}{168}{section.0.4}}
\newlabel{v}{{0.4}{168}{V}{section.0.4}{}}
\@writefile{toc}{\contentsline {section}{\numberline {0.5}VI}{228}{section.0.5}}
\newlabel{vi}{{0.5}{228}{VI}{section.0.5}{}}
\@writefile{toc}{\contentsline {section}{\numberline {0.6}VII}{297}{section.0.6}}
\newlabel{vii}{{0.6}{297}{VII}{section.0.6}{}}
\@writefile{toc}{\contentsline {section}{\numberline {0.7}DEUXIÈME PARTIE}{357}{section.0.7}}
\newlabel{deuxiuxe8me-partie}{{0.7}{357}{DEUXIÈME PARTIE}{section.0.7}{}}
\@writefile{toc}{\contentsline {section}{\numberline {0.8}I}{357}{section.0.8}}
\newlabel{i-1}{{0.8}{357}{I}{section.0.8}{}}
\@writefile{toc}{\contentsline {section}{\numberline {0.9}II}{441}{section.0.9}}
\newlabel{ii-1}{{0.9}{441}{II}{section.0.9}{}}
\@writefile{toc}{\contentsline {section}{\numberline {0.10}III}{507}{section.0.10}}
\newlabel{iii-1}{{0.10}{507}{III}{section.0.10}{}}
\@writefile{toc}{\contentsline {section}{\numberline {0.11}IV}{545}{section.0.11}}
\newlabel{iv-1}{{0.11}{545}{IV}{section.0.11}{}}
\@writefile{toc}{\contentsline {section}{\numberline {0.12}V}{598}{section.0.12}}
\newlabel{v-1}{{0.12}{598}{V}{section.0.12}{}}
\@writefile{toc}{\contentsline {section}{\numberline {0.13}VI}{657}{section.0.13}}
\newlabel{vi-1}{{0.13}{657}{VI}{section.0.13}{}}
\@writefile{toc}{\contentsline {section}{\numberline {0.14}VII}{688}{section.0.14}}
\newlabel{vii-1}{{0.14}{688}{VII}{section.0.14}{}}
\@writefile{toc}{\contentsline {section}{\numberline {0.15}VIII}{740}{section.0.15}}
\newlabel{viii}{{0.15}{740}{VIII}{section.0.15}{}}
